------------------------------ CRASH INFO ----------------------------------
Target            : Target.exe (0x00400000)
Crash Time        : 2015-06-25 11:40:08
Command Line      : C:\a\bob\MyFuzzer\UpFuzzer\PyRunner\Target.exe C:\a\bob\MyFuzzer\UpFuzzer\PyRunner\Mutated\c_2.wmv
Exception Address : 0x43434343 "CCCC"
Exception Code    : 0xC0000005 (ACCESS_VIOLATION)

------------------------------ REGISTERS -----------------------------------
EAX : 00000000 "...."
EBX : 00000000 "...."
ECX : 00403060 "`0@."
EDX : 00434343 "CCC."
ESI : 00000001 "...."
EDI : 00000000 "...."

EBP : 43434343 "CCCC"
ESP : 0018FEAC "...."

EIP : 43434343 "CCCC"

------------------------------ INSTRUCTIONS --------------------------------
43434343 "CCCC" ? ? EIP Changed

------------------------------ STACK DUMP -----------------------------------
0018FEAC 43 43 43 43  43 43 43 43  43 43 43 43  43 43 43 43 CCCCCCCCCCCCCCCC
0018FEBC 43 43 43 43  43 43 43 43  43 43 43 43  43 43 43 43 CCCCCCCCCCCCCCCC
0018FECC 43 43 43 43  43 43 43 00  C4 FF 18 00  09 17 40 00 CCCCCCC.......@.
0018FEDC 67 F9 85 C3  00 00 00 00  00 00 00 00  00 00 23 04 g.............#.
0018FEEC FD D0 5F 00  00 00 94 76  52 14 95 76  F8 B2 5F 00 .._....vR..v.._.
0018FEFC 06 00 23 04  FD D0 5F 00  00 00 00 00  F4 34 95 76 ..#..._......4.v
0018FF0C F8 B2 5F 00  00 00 23 04  FD D0 5F 00  00 00 94 76 .._...#..._....v
0018FF1C 47 4A 95 76  F8 B2 5F 00  06 00 23 04  FD D0 5F 00 GJ.v.._...#..._.

0018FEAC 43434343 43434343 43434343 43434343 CCCCCCCCCCCCCCCC
0018FEBC 43434343 43434343 43434343 43434343 CCCCCCCCCCCCCCCC
0018FECC 43434343 00434343 0018FFC4 00401709 CCCCCCC.......@.
0018FEDC C385F967 00000000 00000000 04230000 g.............#.
0018FEEC 005FD0FD 76940000 76951452 005FB2F8 .._....vR..v.._.
0018FEFC 04230006 005FD0FD 00000000 769534F4 ..#..._......4.v
0018FF0C 005FB2F8 04230000 005FD0FD 76940000 .._...#..._....v
0018FF1C 76954A47 005FB2F8 04230006 005FD0FD GJ.v.._...#..._.

