^\\PSF\HOST\A\DEV\SRC\C\BOB\MYFUZZER\UPFUZZER\TARGET\MAIN.CPP
\\PSF\HOST\A\DEV\SRC\C\BOB\MYFUZZER\UPFUZZER\TARGET\DEBUG\VC140.PDB
\\PSF\HOST\A\DEV\SRC\C\BOB\MYFUZZER\UPFUZZER\TARGET\DEBUG\VC140.IDB
\\PSF\HOST\A\DEV\SRC\C\BOB\MYFUZZER\UPFUZZER\TARGET\DEBUG\MAIN.OBJ
