^C:\A\BOB\MYFUZZER\UPFUZZER\RUNNER\DEBUG\MAIN.OBJ
C:\A\BOB\MYFUZZER\UPFUZZER\DEBUG\RUNNER.ILK
C:\A\BOB\MYFUZZER\UPFUZZER\DEBUG\RUNNER.EXE
C:\A\BOB\MYFUZZER\UPFUZZER\DEBUG\RUNNER.PDB
^\\PSF\HOST\A\DEV\SRC\C\BOB\MYFUZZER\UPFUZZER\RUNNER\DEBUG\MAIN.OBJ
\\PSF\HOST\A\DEV\SRC\C\BOB\MYFUZZER\UPFUZZER\DEBUG\RUNNER.ILK
\\PSF\HOST\A\DEV\SRC\C\BOB\MYFUZZER\UPFUZZER\DEBUG\RUNNER.EXE
\\PSF\HOST\A\DEV\SRC\C\BOB\MYFUZZER\UPFUZZER\DEBUG\RUNNER.PDB
