^C:\A\BOB\MYFUZZER\UPFUZZER\DEBUGGER\CRASHREPORT.CPP|C:\A\BOB\MYFUZZER\UPFUZZER\DEBUGGER\MAIN.CPP
C:\A\BOB\MYFUZZER\UPFUZZER\DEBUGGER\RELEASE\VC120.PDB
C:\A\BOB\MYFUZZER\UPFUZZER\DEBUGGER\RELEASE\MAIN.OBJ
C:\A\BOB\MYFUZZER\UPFUZZER\DEBUGGER\RELEASE\CRASHREPORT.OBJ
^C:\A\BOB\MYFUZZER\UPFUZZER\DEBUGGER\CRASHREPORT.CPP
C:\A\BOB\MYFUZZER\UPFUZZER\DEBUGGER\RELEASE\VC120.PDB
^C:\A\BOB\MYFUZZER\UPFUZZER\DEBUGGER\MAIN.CPP
C:\A\BOB\MYFUZZER\UPFUZZER\DEBUGGER\RELEASE\VC120.PDB
C:\A\BOB\MYFUZZER\UPFUZZER\DEBUGGER\RELEASE\MAIN.OBJ
^\\PSF\HOST\A\DEV\SRC\C\BOB\MYFUZZER\UPFUZZER\DEBUGGER\CRASHREPORT.CPP|\\PSF\HOST\A\DEV\SRC\C\BOB\MYFUZZER\UPFUZZER\DEBUGGER\MAIN.CPP
\\PSF\HOST\A\DEV\SRC\C\BOB\MYFUZZER\UPFUZZER\DEBUGGER\RELEASE\VC140.PDB
\\PSF\HOST\A\DEV\SRC\C\BOB\MYFUZZER\UPFUZZER\DEBUGGER\RELEASE\MAIN.OBJ
\\PSF\HOST\A\DEV\SRC\C\BOB\MYFUZZER\UPFUZZER\DEBUGGER\RELEASE\CRASHREPORT.OBJ
^\\PSF\HOST\A\DEV\SRC\C\BOB\MYFUZZER\UPFUZZER\DEBUGGER\CRASHREPORT.CPP
\\PSF\HOST\A\DEV\SRC\C\BOB\MYFUZZER\UPFUZZER\DEBUGGER\RELEASE\VC140.PDB
^\\PSF\HOST\A\DEV\SRC\C\BOB\MYFUZZER\UPFUZZER\DEBUGGER\MAIN.CPP
\\PSF\HOST\A\DEV\SRC\C\BOB\MYFUZZER\UPFUZZER\DEBUGGER\RELEASE\VC140.PDB
^\\PSF\HOST\A\DEV\SRC\C\BOB\MYFUZZER\SEULFUZZER\DEBUGGER\CRASHREPORT.CPP|\\PSF\HOST\A\DEV\SRC\C\BOB\MYFUZZER\SEULFUZZER\DEBUGGER\MAIN.CPP
\\PSF\HOST\A\DEV\SRC\C\BOB\MYFUZZER\SEULFUZZER\DEBUGGER\RELEASE\VC140.PDB
\\PSF\HOST\A\DEV\SRC\C\BOB\MYFUZZER\SEULFUZZER\DEBUGGER\RELEASE\MAIN.OBJ
\\PSF\HOST\A\DEV\SRC\C\BOB\MYFUZZER\SEULFUZZER\DEBUGGER\RELEASE\CRASHREPORT.OBJ
^\\PSF\HOST\A\DEV\SRC\C\BOB\MYFUZZER\SEULFUZZER\DEBUGGER\CRASHREPORT.CPP
\\PSF\HOST\A\DEV\SRC\C\BOB\MYFUZZER\SEULFUZZER\DEBUGGER\RELEASE\VC140.PDB
^\\PSF\HOST\A\DEV\SRC\C\BOB\MYFUZZER\SEULFUZZER\DEBUGGER\MAIN.CPP
\\PSF\HOST\A\DEV\SRC\C\BOB\MYFUZZER\SEULFUZZER\DEBUGGER\RELEASE\VC140.PDB
