﻿빌드 시작: 2015-09-26 오후 9:20:14
     1>2 노드의 "\\psf\Host\A\Dev\SRC\C\bob\MyFuzzer\UpFuzzer\Target\Target.vcxproj" 프로젝트(Build 대상)입니다.
     1>ClCompile:
         C:\Program Files (x86)\Microsoft Visual Studio 14.0\VC\bin\CL.exe /c /ZI /nologo /W3 /WX- /Od /Oy- /D WIN32 /D _DEBUG /D _CONSOLE /D _LIB /D _UNICODE /D UNICODE /Gm /EHsc /RTC1 /MDd /GS /fp:precise /Zc:wchar_t /Zc:forScope /Zc:inline /Fo"Debug\\" /Fd"Debug\vc140.pdb" /Gd /TP /analyze- /errorReport:prompt Main.cpp
         Main.cpp
     1>c:\program files (x86)\microsoft sdks\windows\v7.1a\include\sal_supp.h(57): warning C4005: '__useHeader': 매크로 재정의
         c:\program files (x86)\microsoft visual studio 14.0\vc\include\sal.h(2886): note: '__useHeader'의 이전 정의를 참조하십시오.
     1>c:\program files (x86)\microsoft sdks\windows\v7.1a\include\specstrings_supp.h(77): warning C4005: '__on_failure': 매크로 재정의
         c:\program files (x86)\microsoft visual studio 14.0\vc\include\sal.h(2896): note: '__on_failure'의 이전 정의를 참조하십시오.
     1>\\psf\host\a\dev\src\c\bob\myfuzzer\upfuzzer\target\main.cpp(13): warning C4996: 'scanf': This function or variable may be unsafe. Consider using scanf_s instead. To disable deprecation, use _CRT_SECURE_NO_WARNINGS. See online help for details.
         c:\program files (x86)\windows kits\10\include\10.0.10150.0\ucrt\stdio.h(1270): note: 'scanf' 선언을 참조하십시오.
     1>\\psf\host\a\dev\src\c\bob\myfuzzer\upfuzzer\target\main.cpp(15): warning C4996: 'strcpy': This function or variable may be unsafe. Consider using strcpy_s instead. To disable deprecation, use _CRT_SECURE_NO_WARNINGS. See online help for details.
         c:\program files (x86)\windows kits\10\include\10.0.10150.0\ucrt\string.h(119): note: 'strcpy' 선언을 참조하십시오.
     1>\\psf\host\a\dev\src\c\bob\myfuzzer\upfuzzer\target\main.cpp(17): warning C4996: 'fscanf': This function or variable may be unsafe. Consider using fscanf_s instead. To disable deprecation, use _CRT_SECURE_NO_WARNINGS. See online help for details.
         c:\program files (x86)\windows kits\10\include\10.0.10150.0\ucrt\stdio.h(1193): note: 'fscanf' 선언을 참조하십시오.
     1>\\psf\host\a\dev\src\c\bob\myfuzzer\upfuzzer\target\main.cpp(17): warning C4996: 'fopen': This function or variable may be unsafe. Consider using fopen_s instead. To disable deprecation, use _CRT_SECURE_NO_WARNINGS. See online help for details.
         c:\program files (x86)\windows kits\10\include\10.0.10150.0\ucrt\stdio.h(205): note: 'fopen' 선언을 참조하십시오.
     1>\\psf\host\a\dev\src\c\bob\myfuzzer\upfuzzer\target\main.cpp(19): warning C4996: 'strcpy': This function or variable may be unsafe. Consider using strcpy_s instead. To disable deprecation, use _CRT_SECURE_NO_WARNINGS. See online help for details.
         c:\program files (x86)\windows kits\10\include\10.0.10150.0\ucrt\string.h(119): note: 'strcpy' 선언을 참조하십시오.
       Link:
         C:\Program Files (x86)\Microsoft Visual Studio 14.0\VC\bin\link.exe /ERRORREPORT:PROMPT /OUT:"\\psf\Host\A\Dev\SRC\C\bob\MyFuzzer\UpFuzzer\Debug\Target.exe" /INCREMENTAL /NOLOGO d3d8.lib d3dx8.lib kernel32.lib user32.lib gdi32.lib winspool.lib comdlg32.lib advapi32.lib shell32.lib ole32.lib oleaut32.lib uuid.lib odbc32.lib odbccp32.lib /MANIFEST /MANIFESTUAC:"level='asInvoker' uiAccess='false'" /manifest:embed /Debug /PDB:"\\psf\Host\A\Dev\SRC\C\bob\MyFuzzer\UpFuzzer\Debug\Target.pdb" /SUBSYSTEM:CONSOLE /TLBID:1 /DYNAMICBASE /NXCOMPAT /IMPLIB:"\\psf\Host\A\Dev\SRC\C\bob\MyFuzzer\UpFuzzer\Debug\Target.lib" /MACHINE:X86 Debug\Main.obj
         Target.vcxproj -> \\psf\Host\A\Dev\SRC\C\bob\MyFuzzer\UpFuzzer\Debug\Target.exe
     1>"\\psf\Host\A\Dev\SRC\C\bob\MyFuzzer\UpFuzzer\Target\Target.vcxproj" 프로젝트를 빌드했습니다(Build 대상).

빌드했습니다.

경과 시간: 00:00:12.71
