^C:\A\BOB\MYFUZZER\UPFUZZER\RUNNER\MAIN.CPP
/c /Zi /nologo /W3 /WX- /O2 /Oi /Oy- /GL /D WIN32 /D NDEBUG /D _CONSOLE /D _LIB /D _MBCS /Gm- /EHsc /MD /GS /Gy /fp:precise /Zc:wchar_t /Zc:forScope /Fo"RELEASE\\" /Fd"RELEASE\VC120.PDB" /Gd /TP /analyze- C:\A\BOB\MYFUZZER\UPFUZZER\RUNNER\MAIN.CPP
^\\PSF\HOST\A\DEV\SRC\C\BOB\MYFUZZER\UPFUZZER\RUNNER\MAIN.CPP
/c /Zi /nologo /W3 /WX- /O2 /Oi /Oy- /GL /D WIN32 /D NDEBUG /D _CONSOLE /D _LIB /D _MBCS /Gm- /EHsc /MD /GS /Gy /fp:precise /Zc:wchar_t /Zc:forScope /Zc:inline /Fo"RELEASE\\" /Fd"RELEASE\VC140.PDB" /Gd /TP /analyze- \\PSF\HOST\A\DEV\SRC\C\BOB\MYFUZZER\UPFUZZER\RUNNER\MAIN.CPP
^\\PSF\HOST\A\DEV\SRC\C\BOB\MYFUZZER\SEULFUZZER\RUNNER\MAIN.CPP
/c /Zi /nologo /W3 /WX- /O2 /Oi /Oy- /GL /D WIN32 /D NDEBUG /D _CONSOLE /D _LIB /D _MBCS /Gm- /EHsc /MD /GS /Gy /fp:precise /Zc:wchar_t /Zc:forScope /Zc:inline /Fo"RELEASE\\" /Fd"RELEASE\VC140.PDB" /Gd /TP /analyze- \\PSF\HOST\A\DEV\SRC\C\BOB\MYFUZZER\SEULFUZZER\RUNNER\MAIN.CPP
