^C:\A\BOB\MYFUZZER\UPFUZZER\RUNNER\RELEASE\MAIN.OBJ
/OUT:"C:\A\BOB\MYFUZZER\UPFUZZER\RELEASE\RUNNER.EXE" /INCREMENTAL:NO /NOLOGO kernel32.lib user32.lib gdi32.lib winspool.lib comdlg32.lib advapi32.lib shell32.lib ole32.lib oleaut32.lib uuid.lib odbc32.lib odbccp32.lib /MANIFEST /MANIFESTUAC:"level='asInvoker' uiAccess='false'" /manifest:embed /DEBUG /PDB:"C:\A\BOB\MYFUZZER\UPFUZZER\RELEASE\RUNNER.PDB" /SUBSYSTEM:CONSOLE /OPT:REF /OPT:ICF /LTCG /TLBID:1 /DYNAMICBASE /NXCOMPAT /IMPLIB:"C:\A\BOB\MYFUZZER\UPFUZZER\RELEASE\RUNNER.LIB" /MACHINE:X86 /SAFESEH RELEASE\MAIN.OBJ
^\\PSF\HOST\A\DEV\SRC\C\BOB\MYFUZZER\UPFUZZER\RUNNER\RELEASE\MAIN.OBJ
/OUT:"\\PSF\HOST\A\DEV\SRC\C\BOB\MYFUZZER\UPFUZZER\RELEASE\RUNNER.EXE" /INCREMENTAL:NO /NOLOGO D3D8.LIB D3DX8.LIB KERNEL32.LIB USER32.LIB GDI32.LIB WINSPOOL.LIB COMDLG32.LIB ADVAPI32.LIB SHELL32.LIB OLE32.LIB OLEAUT32.LIB UUID.LIB ODBC32.LIB ODBCCP32.LIB /MANIFEST /MANIFESTUAC:"level='asInvoker' uiAccess='false'" /manifest:embed /Debug /PDB:"\\PSF\HOST\A\DEV\SRC\C\BOB\MYFUZZER\UPFUZZER\RELEASE\RUNNER.PDB" /SUBSYSTEM:CONSOLE /OPT:REF /OPT:ICF /LTCG:incremental /TLBID:1 /DYNAMICBASE /NXCOMPAT /IMPLIB:"\\PSF\HOST\A\DEV\SRC\C\BOB\MYFUZZER\UPFUZZER\RELEASE\RUNNER.LIB" /MACHINE:X86 /SAFESEH RELEASE\MAIN.OBJ
^\\PSF\HOST\A\DEV\SRC\C\BOB\MYFUZZER\SEULFUZZER\RUNNER\RELEASE\MAIN.OBJ
/OUT:"\\PSF\HOST\A\DEV\SRC\C\BOB\MYFUZZER\SEULFUZZER\RELEASE\RUNNER.EXE" /INCREMENTAL:NO /NOLOGO D3D8.LIB D3DX8.LIB KERNEL32.LIB USER32.LIB GDI32.LIB WINSPOOL.LIB COMDLG32.LIB ADVAPI32.LIB SHELL32.LIB OLE32.LIB OLEAUT32.LIB UUID.LIB ODBC32.LIB ODBCCP32.LIB /MANIFEST /MANIFESTUAC:"level='asInvoker' uiAccess='false'" /manifest:embed /Debug /PDB:"\\PSF\HOST\A\DEV\SRC\C\BOB\MYFUZZER\SEULFUZZER\RELEASE\RUNNER.PDB" /SUBSYSTEM:CONSOLE /OPT:REF /OPT:ICF /LTCG:incremental /TLBID:1 /DYNAMICBASE /NXCOMPAT /IMPLIB:"\\PSF\HOST\A\DEV\SRC\C\BOB\MYFUZZER\SEULFUZZER\RELEASE\RUNNER.LIB" /MACHINE:X86 /SAFESEH RELEASE\MAIN.OBJ
