^C:\A\BOB\MYFUZZER\UPFUZZER\RUNNER\RELEASE\MAIN.OBJ
C:\A\BOB\MYFUZZER\UPFUZZER\RELEASE\RUNNER.EXE
C:\A\BOB\MYFUZZER\UPFUZZER\RELEASE\RUNNER.PDB
^\\PSF\HOST\A\DEV\SRC\C\BOB\MYFUZZER\UPFUZZER\RUNNER\RELEASE\MAIN.OBJ
\\PSF\HOST\A\DEV\SRC\C\BOB\MYFUZZER\UPFUZZER\RELEASE\RUNNER.EXE
\\PSF\HOST\A\DEV\SRC\C\BOB\MYFUZZER\UPFUZZER\RELEASE\RUNNER.IPDB
\\PSF\HOST\A\DEV\SRC\C\BOB\MYFUZZER\UPFUZZER\RELEASE\RUNNER.IOBJ
\\PSF\HOST\A\DEV\SRC\C\BOB\MYFUZZER\UPFUZZER\RELEASE\RUNNER.PDB
^\\PSF\HOST\A\DEV\SRC\C\BOB\MYFUZZER\SEULFUZZER\RUNNER\RELEASE\MAIN.OBJ
\\PSF\HOST\A\DEV\SRC\C\BOB\MYFUZZER\SEULFUZZER\RELEASE\RUNNER.EXE
\\PSF\HOST\A\DEV\SRC\C\BOB\MYFUZZER\SEULFUZZER\RELEASE\RUNNER.IPDB
\\PSF\HOST\A\DEV\SRC\C\BOB\MYFUZZER\SEULFUZZER\RELEASE\RUNNER.IOBJ
\\PSF\HOST\A\DEV\SRC\C\BOB\MYFUZZER\SEULFUZZER\RELEASE\RUNNER.PDB
